<svg width="16" height="16" viewBox="0 0 16 16" fill="none" xmlns="http://www.w3.org/2000/svg">
<g clip-path="url(#clip0_1506_4897)">
<path fill-rule="evenodd" clip-rule="evenodd" d="M7.03714 1.25071C7.33107 1.08523 7.66269 0.998291 8 0.998291C8.33731 0.998291 8.66893 1.08523 8.96286 1.25071C9.25679 1.4162 9.50311 1.65464 9.67805 1.94305L9.67959 1.94558L15.7327 12.0507L15.737 12.0581C15.9084 12.3549 15.999 12.6913 16 13.034C16.001 13.3767 15.9122 13.7137 15.7425 14.0114C15.5728 14.3091 15.328 14.5573 15.0327 14.731C14.7373 14.9048 14.4016 14.9983 14.0589 15.002L14.0531 15.0021L1.94106 15.0021C1.59838 14.9983 1.26267 14.9048 0.967309 14.731C0.67195 14.5572 0.427246 14.3091 0.257542 14.0114C0.0878373 13.7137 -0.000951828 13.3767 7.69521e-06 13.034C0.000967251 12.6913 0.0916423 12.3549 0.263011 12.0581L0.267344 12.0507L6.32042 1.94558L6.77793 2.21964L6.32195 1.94305C6.49689 1.65464 6.74321 1.4162 7.03714 1.25071ZM7.23464 2.49512L7.23395 2.49625L1.18485 12.5948C1.10784 12.7294 1.0671 12.8818 1.06667 13.037C1.06623 13.1935 1.10677 13.3473 1.18424 13.4832C1.26171 13.6191 1.37342 13.7324 1.50826 13.8117C1.64234 13.8906 1.79464 13.9332 1.95017 13.9354H14.0498C14.2054 13.9332 14.3577 13.8906 14.4917 13.8117C14.6266 13.7324 14.7383 13.6191 14.8158 13.4832C14.8932 13.3473 14.9338 13.1935 14.9333 13.037C14.9329 12.8818 14.8922 12.7294 14.8151 12.5948L8.76605 2.49625L8.76536 2.49512C8.68554 2.36397 8.57336 2.25552 8.43956 2.18019C8.30538 2.10465 8.15399 2.06496 8 2.06496C7.84601 2.06496 7.69462 2.10465 7.56044 2.18019C7.42664 2.25552 7.31446 2.36397 7.23464 2.49512Z" fill="#1D1D1B"/>
<path fill-rule="evenodd" clip-rule="evenodd" d="M8.00026 5.35949C8.29481 5.35949 8.53359 5.59827 8.53359 5.89282V8.75142C8.53359 9.04597 8.29481 9.28475 8.00026 9.28475C7.70571 9.28475 7.46693 9.04597 7.46693 8.75142V5.89282C7.46693 5.59827 7.70571 5.35949 8.00026 5.35949Z" fill="#1D1D1B"/>
<path fill-rule="evenodd" clip-rule="evenodd" d="M7.46693 11.61C7.46693 11.3155 7.70571 11.0767 8.00026 11.0767H8.00741C8.30196 11.0767 8.54074 11.3155 8.54074 11.61C8.54074 11.9046 8.30196 12.1433 8.00741 12.1433H8.00026C7.70571 12.1433 7.46693 11.9046 7.46693 11.61Z" fill="#1D1D1B"/>
</g>
<defs>
<clipPath id="clip0_1506_4897">
<rect width="16" height="16" fill="white"/>
</clipPath>
</defs>
</svg>
