<svg width="16" height="16" viewBox="0 0 16 16" fill="none" xmlns="http://www.w3.org/2000/svg">
<g clip-path="url(#clip0_1506_4904)">
<path d="M8.37712 0.910457C8.5854 0.702177 8.5854 0.364489 8.37712 0.15621C8.16884 -0.0520699 7.83116 -0.0520699 7.62288 0.15621L0.15621 7.62288C-0.0520699 7.83116 -0.0520699 8.16884 0.15621 8.37712L7.62288 15.8438C7.83116 16.0521 8.16884 16.0521 8.37712 15.8438C8.5854 15.6355 8.5854 15.2978 8.37712 15.0895L1.82091 8.53333H15.4844C15.7692 8.53333 16 8.29455 16 8C16 7.70545 15.7692 7.46667 15.4844 7.46667H1.82091L8.37712 0.910457Z" fill="#1D1D1B"/>
</g>
<defs>
<clipPath id="clip0_1506_4904">
<rect width="16" height="16" fill="white"/>
</clipPath>
</defs>
</svg>
